FlipFlops/simulation/qsim/FlipFlop.msim.vcd
$comment
	File created using the following command:
		vcd file FlipFlop.msim.vcd -direction
$end
$date
	Fri Aug 31 16:47:48 2018
$end
$version
	ModelSim Version 10.1d
$end
$timescale
	1ps
$end
$scope module Counter2_VHDL_vlg_vec_tst $end
$var reg 1 ! Clock $end
$var reg 1 " Clock_enable_B $end
$var reg 1 # Reset $end
$var wire 1 $ Output [0] $end
$var wire 1 % Output [1] $end
$var wire 1 & Output [2] $end
$var wire 1 ' Output [3] $end
$var wire 1 ( Output [4] $end
$var wire 1 ) Output [5] $end
$var wire 1 * Output [6] $end
$var wire 1 + sampler $end
$scope module i1 $end
$var wire 1 , gnd $end
$var wire 1 - vcc $end
$var wire 1 . unknown $end
$var tri1 1 / devclrn $end
$var tri1 1 0 devpor $end
$var tri1 1 1 devoe $end
$var wire 1 2 temp~3_combout $end
$var wire 1 3 Clock~combout $end
$var wire 1 4 Clock_enable_B~combout $end
$var wire 1 5 temp[1]~0_combout $end
$var wire 1 6 Reset~combout $end
$var wire 1 7 temp~2_combout $end
$var wire 1 8 temp[2]~1_combout $end
$var wire 1 9 Output~0_combout $end
$var wire 1 : Output~1_combout $end
$var wire 1 ; Output~2_combout $end
$var wire 1 < Output~3_combout $end
$var wire 1 = Output~4_combout $end
$var wire 1 > Output~5_combout $end
$var wire 1 ? Output~6_combout $end
$var wire 1 @ temp [0] $end
$var wire 1 A temp [1] $end
$var wire 1 B temp [2] $end
$var wire 1 C temp [3] $end
$upscope $end
$upscope $end
$enddefinitions $end
#0
$dumpvars
0!
0"
0#
1*
0)
0(
0'
0&
0%
0$
x+
0,
1-
x.
1/
10
11
02
03
04
05
06
17
08
19
0:
0;
0<
0=
0>
0?
0C
0B
0A
0@
$end
#31250
1!
13
0+
1C
1?
1<
1;
1:
18
07
1$
1'
1(
1)
#62500
0!
03
1+
#93750
1!
13
0+
1B
0C
0?
1=
0<
0;
09
17
0$
1&
0'
0(
0*
#125000
0!
03
1+
#156250
1!
13
0+
1C
0=
1;
08
07
15
0&
1(
#187500
0!
03
1+
#218750
1!
13
0+
0B
0C
1A
1?
1<
0:
17
1$
1'
0)
#250000
0!
03
1+
#281250
1!
13
0+
1C
0?
1>
0<
18
07
0$
1%
0'
#312500
0!
03
1+
#343750
1!
13
0+
1B
0C
0>
1<
1:
19
17
0%
1'
1)
1*
#375000
0!
03
1+
#406250
1!
13
0+
1C
0<
0;
0:
09
08
07
05
12
0'
0(
0)
0*
#437500
0!
03
1+
#450000
1#
16
0+
0B
0C
0A
19
17
02
1*
#468750
1!
13
1+
#500000
0!
03
0+
#531250
1!
13
1+
#562500
0!
03
0+
#593750
1!
13
1+
#600000
0#
06
0+
#625000
0!
03
1+
#656250
1!
13
0+
1C
1?
1<
1;
1:
18
07
1$
1'
1(
1)
#687500
0!
03
1+
#718750
1!
13
0+
1B
0C
0?
1=
0<
0;
09
17
0$
1&
0'
0(
0*
#750000
0!
03
1+
#781250
1!
13
0+
1C
0=
1;
08
07
15
0&
1(
#812500
0!
03
1+
#843750
1!
13
0+
0B
0C
1A
1?
1<
0:
17
1$
1'
0)
#875000
0!
03
1+
#906250
1!
13
0+
1C
0?
1>
0<
18
07
0$
1%
0'
#937500
0!
03
1+
#968750
1!
13
0+
1B
0C
0>
1<
1:
19
17
0%
1'
1)
1*
